<?xml version="1.0" encoding="utf-8"?>
<!-- Generator: Adobe Illustrator 19.0.1, SVG Export Plug-In . SVG Version: 6.00 Build 0)  -->
<svg version="1.1" id="Слой_1" xmlns="http://www.w3.org/2000/svg" xmlns:xlink="http://www.w3.org/1999/xlink" x="0px" y="0px"
	 viewBox="-463 268 33 25" style="enable-background:new -463 268 33 25;" xml:space="preserve">
<path d="M-436.4,272.6v-1.3h1.2v1.3H-436.4z M-444.6,287.2c0.9-1.3,2.5-3.5,4.2-4.4c1.5-0.8,2.4-0.3,2.8,0.1l-0.9,0.9
	c-0.2-0.2-0.4-0.3-0.9-0.1c-1,0.3-2.4,1.7-3.8,3.7c-0.8,1-1.5,2.2-2,3.3c0.7,0.1,1.8,0,2.9-0.3c1.4-0.4,2.8-1.1,3.9-2.1
	c1-1,1.4-2.1,0.9-3.2l-0.2-0.4l0.3-0.3c1.1-0.8,1.7-2.1,1.7-3.4l0-5.2h0.6c1.5,0,2.7-1.2,2.7-2.7c0-1.5-1.2-2.7-2.7-2.7h-1.6
	c-0.6,0-1,0.5-1,1.1l0,0.4c0,0.8,0,1.9-0.6,2.5l-0.9-0.8c0.2-0.3,0.2-1.3,0.2-1.7c0-0.2,0-0.4,0-0.5c0.1-1.3,1.1-2.3,2.3-2.3h1.6
	c2.2,0,3.9,1.8,3.9,4c0,1.9-1.4,3.6-3.3,3.9l0,4c0,1.5-0.6,2.9-1.9,4.1c0.4,1.4-0.1,2.9-1.4,4.1c-1.3,1.2-2.8,2-4.4,2.5
	c-1,0.3-1.9,0.4-2.7,0.4c-0.6,0-1.2-0.1-1.6-0.3l-0.3-0.1l-0.1-0.3c0-0.2-0.1-0.6,0.5-1.7C-445.7,288.8-445.2,288-444.6,287.2
	L-444.6,287.2z M-453.1,284.8c0.7-0.3,1.6-0.4,2.4,0c0.5,0.3,0.8,0.7,0.9,1.2l-1.2,0.2c0-0.2-0.1-0.3-0.2-0.4
	c-0.3-0.2-0.9-0.1-1.4,0.1c-1.7,0.7-3.5,3.4-4.1,4.6c1.5,0,3.9-0.7,5.2-1.7c0.4-0.4,0.7-0.8,0.7-1.2l0-0.5l0.5-0.1
	c0.8-0.2,3-0.5,4.5,0.5l-0.7,1.1c-0.9-0.6-2.3-0.5-3.1-0.4c-0.2,0.6-0.6,1.2-1.1,1.6c-1.6,1.3-4.4,2-6.2,2c-0.3,0-0.5,0-0.7,0
	l-0.4-0.1l-0.1-0.4c-0.2-0.8,1.1-2.7,1.5-3.3C-455.9,287.1-454.6,285.4-453.1,284.8L-453.1,284.8z M-459.7,278.3
	c0.1,0,0.3-0.1,0.3-0.2c1-4.1,5.7-7.1,11.1-7.1c3,0,5.8,0.9,7.9,2.5c2.2,1.7,3.4,3.9,3.4,6.3c0,0.2,0,0.4,0,0.7l0,0.5l-0.4,0.1
	c-3.3,0.8-7,1.2-10.8,1.2c-1.7,0-7-0.1-11-0.8c0.7,1.4,1.9,2.6,3.8,3.8l-0.6,1.1c-2.6-1.6-4.1-3.4-4.7-5.5
	C-461.4,279.2-460.3,278.6-459.7,278.3L-459.7,278.3z M-438.2,279.9L-438.2,279.9c0-3-2.2-5.5-5.4-6.7v1.1c0.9,0.5,1.9,1.4,2.6,2.4
	c0.7,1,1.2,2.2,1.4,3.5L-438.2,279.9L-438.2,279.9z M-440.9,280.5c-0.3-2.1-1.6-4-3.4-5.1l-3.4,2v3.6
	C-445.3,281-443,280.8-440.9,280.5L-440.9,280.5z M-448.3,276.3l3.4-2v-1.5c-2.2-0.6-4.6-0.6-6.9,0v1.5L-448.3,276.3z M-448.9,281
	v-3.6l-3.4-2c-1.5,0.8-3.5,3.1-3.7,5.3C-453.7,280.9-451.1,281-448.9,281z M-459.8,280.1c0.7,0.2,1.6,0.3,2.4,0.4
	c0.3-2.7,2.6-5.3,4.4-6.2v-1c-0.7,0.3-1.3,0.6-1.9,1c-1.6,1-2.8,2.5-3.4,4.4c-0.1,0.5-0.6,0.8-1,1
	C-459.6,279.7-459.8,279.8-459.8,280.1L-459.8,280.1z"/>
</svg>
