<?xml version="1.0" encoding="utf-8"?>
<!-- Generator: Adobe Illustrator 19.0.1, SVG Export Plug-In . SVG Version: 6.00 Build 0)  -->
<svg version="1.1" id="Слой_1" xmlns="http://www.w3.org/2000/svg" xmlns:xlink="http://www.w3.org/1999/xlink" x="0px" y="0px"
	 viewBox="-471 275 16 11" style="enable-background:new -471 275 16 11;" xml:space="preserve">
<path d="M-463.7,284.2l-5.6-5.6c-0.4-0.3-0.4-0.9,0-1.3c0,0,0,0,0,0c0.4-0.4,0.9-0.4,1.3,0c0,0,0,0,0,0l4.9,4.9l5-4.9
	c0.4-0.4,0.9-0.4,1.3,0c0,0,0,0,0,0c0.4,0.3,0.4,0.9,0,1.3c0,0,0,0,0,0l-5.6,5.6C-462.7,284.5-463.3,284.5-463.7,284.2z"/>
</svg>
