<?xml version="1.0" encoding="utf-8"?>
<!-- Generator: Adobe Illustrator 19.0.1, SVG Export Plug-In . SVG Version: 6.00 Build 0)  -->
<svg version="1.1" id="Слой_1" xmlns="http://www.w3.org/2000/svg" xmlns:xlink="http://www.w3.org/1999/xlink" x="0px" y="0px"
	 viewBox="-461 259 36 43" style="enable-background:new -461 259 36 43;" xml:space="preserve">
<path d="M-427,277c0,2.3-0.5,4.6-1.5,6.7c-1.7,4.1-5.5,10.3-13.9,17c-0.4,0.3-1,0.3-1.4,0c-8.3-6.7-12.1-12.9-13.9-17
	c-1-2.1-1.5-4.4-1.5-6.7c0.3-8.9,7.8-15.8,16.6-15.5C-434,261.9-427.2,268.6-427,277L-427,277z M-429.2,277
	c0-7.6-6.2-13.8-13.8-13.8c-7.6,0-13.8,6.2-13.8,13.8c0,0.9,0.1,1.7,0.2,2.5v0.1l0.1,0.4v0c0.2,0.9,0.5,1.9,0.9,2.7l0,0
	c1.6,3.7,5,9.4,12.5,15.6c7.5-6.2,10.9-11.9,12.5-15.6l0,0c0.4-0.9,0.7-1.8,0.9-2.7v0l0.1-0.4v0C-429.3,278.8-429.2,277.9-429.2,277
	L-429.2,277z M-432.8,277.2c0,5.6-4.6,10.2-10.2,10.2c-5.6,0-10.2-4.6-10.2-10.2c0-5.6,4.6-10.2,10.2-10.2
	C-437.4,267-432.8,271.6-432.8,277.2L-432.8,277.2z M-435.1,277.2c-0.2-4.4-3.9-7.7-8.3-7.5c-4.1,0.2-7.3,3.5-7.5,7.5
	c0.2,4.4,3.9,7.7,8.3,7.5C-438.5,284.5-435.3,281.3-435.1,277.2z"/>
</svg>
