<?xml version="1.0" encoding="utf-8"?>
<!-- Generator: Adobe Illustrator 19.0.1, SVG Export Plug-In . SVG Version: 6.00 Build 0)  -->
<svg version="1.1" id="Слой_1" xmlns="http://www.w3.org/2000/svg" xmlns:xlink="http://www.w3.org/1999/xlink" x="0px" y="0px"
	 viewBox="-468 263 23 35" style="enable-background:new -468 263 23 35;" xml:space="preserve">
<path d="M-458.1,287.3c-2.4-0.3-4.6-0.8-6.5-2.3c-0.2-0.2-0.5-0.4-0.7-0.6c-0.8-0.8-0.9-1.7-0.3-2.6c0.6-0.8,1.5-1,2.5-0.6
	c0.2,0.1,0.4,0.2,0.5,0.3c3.6,2.4,8.2,2.5,11.9,0.1c0.3-0.3,0.7-0.5,1.2-0.6c0.8-0.2,1.6,0.1,2.1,0.8c0.5,0.8,0.5,1.7-0.1,2.3
	c-1,1-2.2,1.8-3.5,2.2c-1.2,0.5-2.6,0.7-3.9,0.9l0.4,0.5c1.8,1.8,3.6,3.6,5.4,5.5c0.6,0.6,0.7,1.4,0.4,2.1c-0.4,0.8-1.2,1.3-2,1.3
	c-0.5,0-0.9-0.3-1.3-0.7c-1.4-1.4-2.8-2.7-4.1-4.1c-0.4-0.4-0.6-0.3-0.9,0c-1.4,1.4-2.8,2.8-4.2,4.2c-0.6,0.6-1.4,0.7-2.1,0.4
	c-0.8-0.4-1.3-1.1-1.2-2c0-0.5,0.3-1,0.7-1.3l5.4-5.4L-458.1,287.3L-458.1,287.3z M-456.6,281c-4.4,0-8-3.6-7.9-8c0-4.4,3.6-8,8-7.9
	c4.4,0,8,3.6,7.9,8S-452.2,281-456.6,281L-456.6,281z M-452.6,273c0-2.2-1.8-3.9-3.9-3.9s-3.9,1.8-3.9,3.9l0,0
	c0,2.1,1.8,3.9,3.9,3.9c0,0,0,0,0,0C-454.4,276.9-452.6,275.2-452.6,273C-452.6,273-452.6,273-452.6,273z"/>
</svg>
